armcpu/simulate/output_expected/accum_mem.s.transcript
# vsim -do {run 100ns; quit} -c top 
# Loading work.top
# Loading work.ram_sim
# Loading work.ram_output_delay
# Loading work.system
# Loading work.cpu
# Loading work.forward
# Loading work.multiplier_wrapper
# Loading work.multiplier
# Loading work.stage_if
# Loading work.stage_id
# Loading work.register_file
# Loading work.stage_ex
# Loading work.alu
# Loading work.stage_mem
# Loading work.cp0
# Loading work.mmu
# Loading work.phy_mem_ctrl
# Loading work.serial_port
# Loading work.uart_async_transmitter
# Loading work.uart_async_receiver
# Loading work.vga
# Loading work.vga_ram
# run 100ns 
# time=0 cp0_cause: IP=xxxxxxxx ExcCode=xx
# time=0 com_write_busy=0
# ** Warning: time=0 TLB read missing, vaddr=xxxxxxxX
#    Time: 0 ps  Scope: top.usystem.ucpu.ummu File: src/mmu.v Line: 119
# time=0 com_read_data=00
# ** Warning: time=0 TLB read missing, vaddr=xxxxxxxX
#    Time: 0 ps  Scope: top.usystem.ucpu.ummu File: src/mmu.v Line: 119
# time=0 segdisp=xxxxxxxx
# time=1 cp0_cause: IP=x0000000 ExcCode=xx
# time=1 cpu entered kernel mode
# time=1 cp0_cause: IP=x0000000 ExcCode=00
# time=1 cp0_status: IM=00000000 KSU=00 EXL=0 IE=0
# ** Warning: time=1 TLB read missing, vaddr=xxxxxxxX
#    Time: 1 ns  Scope: top.usystem.ucpu.ummu File: src/mmu.v Line: 119
# time=1 reg1($at)=00000000
# time=1 reg2($v0)=00000000
# time=1 reg3($v1)=00000000
# time=1 reg4($a0)=00000000
# time=1 reg5($a1)=00000000
# time=1 reg6($a2)=00000000
# time=1 reg7($a3)=00000000
# time=1 reg16($s0)=00000000
# time=1 reg26($k0)=00000000
# time=1 reg26($k1)=00000000
# time=1 reg29($sp)=00000000
# time=1 reg31($ra)=00000000
# time=1 cp0_cause: IP=00000000 ExcCode=00
# [32m < -- id -- > time=9 got instruction: pc=xxxxxxxx instr=00000000 [0m
# time=9 cp0_cause: IP=10000000 ExcCode=00
# [32m < -- id -- > time=13 got instruction: pc=80000000 instr=3c048050 [0m
# [32m < -- id -- > time=17 got instruction: pc=80000004 instr=ac800000 [0m
# [32m < -- id -- > time=21 got instruction: pc=80000008 instr=8c9a0000 [0m
# time=21 reg4($a0)=80500000
# [31m <-- mem ext --> time=28 write: addr=40000 data=00000000[0m
# [32m < -- id -- > time=37 got instruction: pc=8000000c instr=275a0001 [0m
# [32m < -- id -- > time=45 got instruction: pc=80000010 instr=1000fffd [0m
# [32m < -- id -- > time=49 got instruction: pc=80000014 instr=ac9a0000 [0m
# time=49 reg26($k0)=00000001
# [32m < -- id -- > time=53 got instruction: pc=80000008 instr=8c9a0000 [0m
# [31m <-- mem ext --> time=60 write: addr=40000 data=00000001[0m
# [32m < -- id -- > time=69 got instruction: pc=8000000c instr=275a0001 [0m
# [32m < -- id -- > time=77 got instruction: pc=80000010 instr=1000fffd [0m
# [32m < -- id -- > time=81 got instruction: pc=80000014 instr=ac9a0000 [0m
# time=81 reg26($k0)=00000002
# [32m < -- id -- > time=85 got instruction: pc=80000008 instr=8c9a0000 [0m
# [31m <-- mem ext --> time=92 write: addr=40000 data=00000002[0m
#  quit 
