armcpu/simulate/output_expected/basic_mem.s.transcript
# vsim -do {run 200ns; quit} -c top 
# Loading work.top
# Loading work.ram_sim
# Loading work.ram_output_delay
# Loading work.system
# Loading work.cpu
# Loading work.forward
# Loading work.multiplier_wrapper
# Loading work.multiplier
# Loading work.stage_if
# Loading work.stage_id
# Loading work.register_file
# Loading work.stage_ex
# Loading work.alu
# Loading work.stage_mem
# Loading work.cp0
# Loading work.mmu
# Loading work.phy_mem_ctrl
# Loading work.serial_port
# Loading work.uart_async_transmitter
# Loading work.uart_async_receiver
# Loading work.vga
# Loading work.vga_ram
# run 200ns 
# time=0 cp0_cause: IP=xxxxxxxx ExcCode=xx
# time=0 com_write_busy=0
# time=0 com_read_data=00
# time=0 cp0_cause: IP=x00x0000 ExcCode=xx
# time=0 segdisp=xxxxxxxx
# time=2 cp0_cause: IP=x0000000 ExcCode=xx
# time=2 cpu entered kernel mode
# time=2 cp0_cause: IP=x0000000 ExcCode=00
# time=2 cp0_status: IM=00000000 KSU=00 EXL=0 IE=0
# time=2 reg1($at)=00000000
# time=2 reg2($v0)=00000000
# time=2 reg3($v1)=00000000
# time=2 reg4($a0)=00000000
# time=2 reg5($a1)=00000000
# time=2 reg6($a2)=00000000
# time=2 reg7($a3)=00000000
# time=2 reg16($s0)=00000000
# time=2 reg26($k0)=00000000
# time=2 reg26($k1)=00000000
# time=2 reg29($sp)=00000000
# time=2 reg30($fp)=00000000
# time=2 reg31($ra)=00000000
# time=2 cp0_cause: IP=00000000 ExcCode=00
# [32m < -- id -- > time=10 got instruction: pc=7ffffffc instr=00000000 [0m
# time=10 cp0_cause: IP=10000000 ExcCode=00
# [32m < -- id -- > time=14 got instruction: pc=80000000 instr=3c048000 [0m
# [32m < -- id -- > time=18 got instruction: pc=80000004 instr=34840100 [0m
# [32m < -- id -- > time=22 got instruction: pc=80000008 instr=3c051993 [0m
# time=22 reg4($a0)=80000000
# [32m < -- id -- > time=26 got instruction: pc=8000000c instr=34a51102 [0m
# time=26 reg4($a0)=80000100
# [32m < -- id -- > time=30 got instruction: pc=80000010 instr=ac850000 [0m
# time=30 reg5($a1)=19930000
# [32m < -- id -- > time=34 got instruction: pc=80000014 instr=8c860000 [0m
# time=34 reg5($a1)=19931102
# [31m <-- mem base --> time=39 write: addr=00000100(00040) data=19931102[0m
# [32m < -- id -- > time=46 got instruction: pc=80000018 instr=00801821 [0m
# [32m < -- id -- > time=54 got instruction: pc=8000001c instr=8c640000 [0m
# time=54 reg6($a2)=19931102
# [32m < -- id -- > time=58 got instruction: pc=80000020 instr=00603021 [0m
# time=58 reg3($v1)=80000100
# [32m < -- id -- > time=66 got instruction: pc=80000024 instr=0800000c [0m
# time=66 reg4($a0)=19931102
# [32m < -- id -- > time=70 got instruction: pc=80000028 instr=8cc60000 [0m
# time=70 reg6($a2)=80000100
# [32m < -- id -- > time=74 got instruction: pc=80000030 instr=8c670000 [0m
# [32m < -- id -- > time=82 got instruction: pc=80000034 instr=8c630000 [0m
# time=82 reg6($a2)=19931102
# [32m < -- id -- > time=90 got instruction: pc=80000038 instr=00673021 [0m
# time=90 reg7($a3)=19931102
# [32m < -- id -- > time=98 got instruction: pc=8000003c instr=3c048000 [0m
# time=98 reg3($v1)=19931102
# [32m < -- id -- > time=102 got instruction: pc=80000040 instr=34840100 [0m
# time=102 reg6($a2)=33262204
# [32m < -- id -- > time=106 got instruction: pc=80000044 instr=3c058000 [0m
# time=106 reg4($a0)=80000000
# [32m < -- id -- > time=110 got instruction: pc=80000048 instr=34a50200 [0m
# time=110 reg4($a0)=80000100
# [32m < -- id -- > time=114 got instruction: pc=8000004c instr=aca40000 [0m
# time=114 reg5($a1)=80000000
# [32m < -- id -- > time=118 got instruction: pc=80000050 instr=8ca50000 [0m
# time=118 reg5($a1)=80000200
# [31m <-- mem base --> time=123 write: addr=00000200(00080) data=80000100[0m
# [32m < -- id -- > time=130 got instruction: pc=80000054 instr=8ca50000 [0m
# [32m < -- id -- > time=138 got instruction: pc=80000058 instr=00a01021 [0m
# time=138 reg5($a1)=80000100
# [32m < -- id -- > time=146 got instruction: pc=8000005c instr=08000017 [0m
# time=146 reg5($a1)=19931102
# [32m < -- id -- > time=150 got instruction: pc=80000060 instr=00000000 [0m
# time=150 reg2($v0)=19931102
# [32m < -- id -- > time=154 got instruction: pc=8000005c instr=08000017 [0m
# [32m < -- id -- > time=158 got instruction: pc=80000060 instr=00000000 [0m
# [32m < -- id -- > time=162 got instruction: pc=8000005c instr=08000017 [0m
# [32m < -- id -- > time=166 got instruction: pc=80000060 instr=00000000 [0m
# [32m < -- id -- > time=170 got instruction: pc=8000005c instr=08000017 [0m
# [32m < -- id -- > time=174 got instruction: pc=80000060 instr=00000000 [0m
# [32m < -- id -- > time=178 got instruction: pc=8000005c instr=08000017 [0m
# [32m < -- id -- > time=182 got instruction: pc=80000060 instr=00000000 [0m
# [32m < -- id -- > time=186 got instruction: pc=8000005c instr=08000017 [0m
# [32m < -- id -- > time=190 got instruction: pc=80000060 instr=00000000 [0m
# [32m < -- id -- > time=194 got instruction: pc=8000005c instr=08000017 [0m
# [32m < -- id -- > time=198 got instruction: pc=80000060 instr=00000000 [0m
#  quit 
