armcpu/simulate/output_expected/disp_flash.s.transcript
# vsim -do {run 100ns; quit} -c top 
# Loading work.top
# Loading work.ram_sim
# Loading work.ram_output_delay
# Loading work.system
# Loading work.cpu
# Loading work.forward
# Loading work.multiplier_wrapper
# Loading work.multiplier
# Loading work.stage_if
# Loading work.stage_id
# Loading work.register_file
# Loading work.stage_ex
# Loading work.alu
# Loading work.stage_mem
# Loading work.cp0
# Loading work.mmu
# Loading work.phy_mem_ctrl
# Loading work.serial_port
# Loading work.uart_async_transmitter
# Loading work.uart_async_receiver
# Loading work.vga
# Loading work.vga_ram
# run 100ns 
# time=0 cp0_cause: IP=xxxxxxxx ExcCode=xx
# time=0 com_write_busy=0
# time=0 com_read_data=00
# time=0 segdisp=xxxxxxxx
# time=2 cp0_cause: IP=x0000000 ExcCode=xx
# time=2 cpu entered kernel mode
# time=2 cp0_cause: IP=x0000000 ExcCode=00
# time=2 cp0_status: IM=00000000 KSU=00 EXL=0 IE=0
# time=2 reg1($at)=00000000
# time=2 reg2($v0)=00000000
# time=2 reg3($v1)=00000000
# time=2 reg4($a0)=00000000
# time=2 reg5($a1)=00000000
# time=2 reg6($a2)=00000000
# time=2 reg7($a3)=00000000
# time=2 reg16($s0)=00000000
# time=2 reg26($k0)=00000000
# time=2 reg26($k1)=00000000
# time=2 reg29($sp)=00000000
# time=2 reg30($fp)=00000000
# time=2 reg31($ra)=00000000
# time=2 cp0_cause: IP=00000000 ExcCode=00
# [32m < -- id -- > time=10 got instruction: pc=7ffffffc instr=00000000 [0m
# time=10 cp0_cause: IP=10000000 ExcCode=00
# [32m < -- id -- > time=14 got instruction: pc=80000000 instr=3c1cbe00 [0m
# [32m < -- id -- > time=18 got instruction: pc=80000004 instr=3c1abfd0 [0m
# [32m < -- id -- > time=22 got instruction: pc=80000008 instr=375a0400 [0m
# [32m < -- id -- > time=26 got instruction: pc=8000000c instr=240200ff [0m
# time=26 reg26($k0)=bfd00000
# [32m < -- id -- > time=30 got instruction: pc=80000010 instr=af820000 [0m
# time=30 reg26($k0)=bfd00400
# [32m < -- id -- > time=34 got instruction: pc=80000014 instr=93820000 [0m
# time=34 reg2($v0)=000000ff
# [31m <-- mem flash --> time=42 write: addr=00000000(000000) data=zzzz00ff[0m
# [32m < -- id -- > time=50 got instruction: pc=80000018 instr=af420000 [0m
# [32m < -- id -- > time=58 got instruction: pc=8000001c instr=1000fffd [0m
# time=62 segdisp=000000ff
# [32m < -- id -- > time=70 got instruction: pc=80000020 instr=279c0001 [0m
# [32m < -- id -- > time=74 got instruction: pc=80000014 instr=93820000 [0m
# [32m < -- id -- > time=78 got instruction: pc=80000018 instr=af420000 [0m
# [32m < -- id -- > time=86 got instruction: pc=8000001c instr=1000fffd [0m
# time=86 reg2($v0)=00000000
# time=90 segdisp=00000000
# [32m < -- id -- > time=98 got instruction: pc=80000020 instr=279c0001 [0m
#  quit 
