armcpu/simulate/output_expected/full_arith.s.transcript
# vsim -do {run 100ns; quit} -c top 
# Loading work.top
# Loading work.ram_sim
# Loading work.ram_output_delay
# Loading work.system
# Loading work.cpu
# Loading work.forward
# Loading work.multiplier_wrapper
# Loading work.multiplier
# Loading work.stage_if
# Loading work.stage_id
# Loading work.register_file
# Loading work.stage_ex
# Loading work.alu
# Loading work.stage_mem
# Loading work.cp0
# Loading work.mmu
# Loading work.phy_mem_ctrl
# Loading work.serial_port
# Loading work.uart_async_transmitter
# Loading work.uart_async_receiver
# Loading work.vga
# Loading work.vga_ram
# run 100ns 
# time=0 cp0_cause: IP=xxxxxxxx ExcCode=xx
# time=0 com_write_busy=0
# time=0 com_read_data=00
# time=0 cp0_cause: IP=x00x0000 ExcCode=xx
# time=0 segdisp=xxxxxxxx
# time=2 cp0_cause: IP=x0000000 ExcCode=xx
# time=2 cpu entered kernel mode
# time=2 cp0_cause: IP=x0000000 ExcCode=00
# time=2 cp0_status: IM=00000000 KSU=00 EXL=0 IE=0
# time=2 reg1($at)=00000000
# time=2 reg2($v0)=00000000
# time=2 reg3($v1)=00000000
# time=2 reg4($a0)=00000000
# time=2 reg5($a1)=00000000
# time=2 reg6($a2)=00000000
# time=2 reg7($a3)=00000000
# time=2 reg16($s0)=00000000
# time=2 reg26($k0)=00000000
# time=2 reg26($k1)=00000000
# time=2 reg29($sp)=00000000
# time=2 reg30($fp)=00000000
# time=2 reg31($ra)=00000000
# time=2 cp0_cause: IP=00000000 ExcCode=00
# [32m < -- id -- > time=10 got instruction: pc=7ffffffc instr=00000000 [0m
# time=10 cp0_cause: IP=10000000 ExcCode=00
# [32m < -- id -- > time=14 got instruction: pc=80000000 instr=24040001 [0m
# [32m < -- id -- > time=18 got instruction: pc=80000004 instr=24050001 [0m
# [32m < -- id -- > time=22 got instruction: pc=80000008 instr=00853821 [0m
# time=22 reg4($a0)=00000001
# [32m < -- id -- > time=26 got instruction: pc=8000000c instr=24060004 [0m
# time=26 reg5($a1)=00000001
# [32m < -- id -- > time=30 got instruction: pc=80000010 instr=00c53823 [0m
# time=30 reg7($a3)=00000002
# [32m < -- id -- > time=34 got instruction: pc=80000014 instr=24a50001 [0m
# time=34 reg6($a2)=00000004
# [32m < -- id -- > time=38 got instruction: pc=80000018 instr=0087302a [0m
# time=38 reg7($a3)=00000003
# [32m < -- id -- > time=42 got instruction: pc=8000001c instr=2885000e [0m
# time=42 reg5($a1)=00000002
# [32m < -- id -- > time=46 got instruction: pc=80000020 instr=00a73023 [0m
# time=46 reg6($a2)=00000001
# [32m < -- id -- > time=50 got instruction: pc=80000024 instr=2c85ffff [0m
# time=50 reg5($a1)=00000001
# [32m < -- id -- > time=54 got instruction: pc=80000028 instr=0087302b [0m
# time=54 reg6($a2)=fffffffe
# [32m < -- id -- > time=58 got instruction: pc=8000002c instr=24040006 [0m
# [32m < -- id -- > time=62 got instruction: pc=80000030 instr=24050007 [0m
# time=62 reg6($a2)=00000001
# [32m < -- id -- > time=66 got instruction: pc=80000034 instr=0800000d [0m
# time=66 reg4($a0)=00000006
# [32m < -- id -- > time=70 got instruction: pc=80000038 instr=00000000 [0m
# time=70 reg5($a1)=00000007
# [32m < -- id -- > time=74 got instruction: pc=80000034 instr=0800000d [0m
# [32m < -- id -- > time=78 got instruction: pc=80000038 instr=00000000 [0m
# [32m < -- id -- > time=82 got instruction: pc=80000034 instr=0800000d [0m
# [32m < -- id -- > time=86 got instruction: pc=80000038 instr=00000000 [0m
# [32m < -- id -- > time=90 got instruction: pc=80000034 instr=0800000d [0m
# [32m < -- id -- > time=94 got instruction: pc=80000038 instr=00000000 [0m
# [32m < -- id -- > time=98 got instruction: pc=80000034 instr=0800000d [0m
#  quit 
