armcpu/simulate/output_expected/full_branch.s.transcript
# vsim -do {run 200ns; quit} -c top 
# Loading work.top
# Loading work.ram_sim
# Loading work.system
# Loading work.cpu
# Loading work.forward
# Loading work.stage_if
# Loading work.stage_id
# Loading work.register_file
# Loading work.stage_ex
# Loading work.alu
# Loading work.stage_mem
# Loading work.cp0
# Loading work.mmu
# Loading work.phy_mem_ctrl
# Loading work.serial_port
# Loading work.uart_async_transmitter
# Loading work.uart_async_receiver
# run 200ns 
# time=0 cp0_cause: IP=xxxxxxxx ExcCode=xx
# time=0 com_write_busy=0
# time=0 come_read_data=00
# ** Warning: time=0 TLB read missing, vaddr=xxxxxxxX
#    Time: 0 ps  Scope: top.usystem.ucpu.ummu File: src/mmu.v Line: 119
# ** Warning: time=0 TLB read missing, vaddr=xxxxxxxX
#    Time: 0 ps  Scope: top.usystem.ucpu.ummu File: src/mmu.v Line: 119
# time=0 segdisp=xxxxxxxx
# time=1 cp0_cause: IP=x0000000 ExcCode=xx
# time=1 cpu entered kernel mode
# time=1 cp0_cause: IP=x0000000 ExcCode=00
# time=1 cp0_status: IM=00000000 KSU=00 EXL=0 IE=0
# time=1 reg1($at)=00000000
# time=1 reg2($v0)=00000000
# time=1 reg3($v1)=00000000
# time=1 reg4($a0)=00000000
# time=1 reg5($a1)=00000000
# time=1 reg6($a2)=00000000
# time=1 reg7($a3)=00000000
# time=1 reg16($s0)=00000000
# time=1 reg26($k0)=00000000
# time=1 reg26($k1)=00000000
# time=1 reg29($sp)=00000000
# time=1 reg31($ra)=00000000
# time=1 cp0_cause: IP=00000000 ExcCode=00
# [32m < -- id -- > time=9 got instruction: pc=xxxxxxxx instr=00000000 [0m
# time=9 cp0_cause: IP=10000000 ExcCode=00
# [32m < -- id -- > time=13 got instruction: pc=80000000 instr=24040000 [0m
# [32m < -- id -- > time=17 got instruction: pc=80000004 instr=24050001 [0m
# [32m < -- id -- > time=21 got instruction: pc=80000008 instr=2406ffff [0m
# [32m < -- id -- > time=25 got instruction: pc=8000000c instr=241a0000 [0m
# time=25 reg5($a1)=00000001
# [32m < -- id -- > time=29 got instruction: pc=80000010 instr=109a0002 [0m
# time=29 reg6($a2)=ffffffff
# [32m < -- id -- > time=33 got instruction: pc=80000014 instr=00000000 [0m
# [32m < -- id -- > time=37 got instruction: pc=8000001c instr=10a40003 [0m
# [32m < -- id -- > time=41 got instruction: pc=80000020 instr=275a0001 [0m
# [32m < -- id -- > time=45 got instruction: pc=80000024 instr=10000002 [0m
# [32m < -- id -- > time=49 got instruction: pc=80000028 instr=275a0001 [0m
# time=49 reg26($k0)=00000001
# time=51 com_write_busy=1
# [32m < -- id -- > time=53 got instruction: pc=80000030 instr=04810002 [0m
# [32m < -- id -- > time=57 got instruction: pc=80000034 instr=00000000 [0m
# time=57 reg26($k0)=00000002
# [32m < -- id -- > time=61 got instruction: pc=8000003c instr=04a10002 [0m
# [32m < -- id -- > time=65 got instruction: pc=80000040 instr=275a0001 [0m
# [32m < -- id -- > time=69 got instruction: pc=80000048 instr=04c10003 [0m
# time=71 cp0_cause: IP=10010000 ExcCode=00
# time=73 com_write_busy=0
# [32m < -- id -- > time=73 got instruction: pc=8000004c instr=275a0001 [0m
# time=73 reg26($k0)=00000003
# [32m < -- id -- > time=77 got instruction: pc=80000050 instr=10000002 [0m
# [32m < -- id -- > time=81 got instruction: pc=80000054 instr=275a0001 [0m
# time=81 reg26($k0)=00000004
# [32m < -- id -- > time=85 got instruction: pc=8000005c instr=1c800003 [0m
# [32m < -- id -- > time=89 got instruction: pc=80000060 instr=00000000 [0m
# time=89 reg26($k0)=00000005
# [32m < -- id -- > time=93 got instruction: pc=80000064 instr=10000002 [0m
# [32m < -- id -- > time=97 got instruction: pc=80000068 instr=275a0001 [0m
# [32m < -- id -- > time=101 got instruction: pc=80000070 instr=18800002 [0m
# time=105 com_write_busy=1
# [32m < -- id -- > time=105 got instruction: pc=80000074 instr=00000000 [0m
# time=105 reg26($k0)=00000006
# [32m < -- id -- > time=109 got instruction: pc=8000007c instr=18a00002 [0m
# [32m < -- id -- > time=113 got instruction: pc=80000080 instr=275a0001 [0m
# [32m < -- id -- > time=117 got instruction: pc=80000084 instr=275a0001 [0m
# [32m < -- id -- > time=121 got instruction: pc=80000088 instr=04800002 [0m
# time=121 reg26($k0)=00000007
# [32m < -- id -- > time=125 got instruction: pc=8000008c instr=00000000 [0m
# time=125 reg26($k0)=00000008
# time=127 com_write_busy=0
# [32m < -- id -- > time=129 got instruction: pc=80000094 instr=04c00002 [0m
# [32m < -- id -- > time=133 got instruction: pc=80000098 instr=275a0001 [0m
# [32m < -- id -- > time=137 got instruction: pc=800000a0 instr=14800002 [0m
# [32m < -- id -- > time=141 got instruction: pc=800000a4 instr=275a0001 [0m
# time=141 reg26($k0)=00000009
# [32m < -- id -- > time=145 got instruction: pc=800000a8 instr=275a0001 [0m
# [32m < -- id -- > time=149 got instruction: pc=800000ac instr=14a60002 [0m
# time=149 reg26($k0)=0000000a
# [32m < -- id -- > time=153 got instruction: pc=800000b0 instr=00000000 [0m
# time=153 reg26($k0)=0000000b
# [32m < -- id -- > time=157 got instruction: pc=800000b8 instr=275a0001 [0m
# time=159 com_write_busy=1
# [32m < -- id -- > time=161 got instruction: pc=800000bc instr=1000ffff [0m
# [32m < -- id -- > time=165 got instruction: pc=800000c0 instr=00000000 [0m
# time=165 reg26($k0)=0000000c
# [32m < -- id -- > time=169 got instruction: pc=800000bc instr=1000ffff [0m
# [32m < -- id -- > time=173 got instruction: pc=800000c0 instr=00000000 [0m
# [32m < -- id -- > time=177 got instruction: pc=800000bc instr=1000ffff [0m
# time=181 com_write_busy=0
# [32m < -- id -- > time=181 got instruction: pc=800000c0 instr=00000000 [0m
# [32m < -- id -- > time=185 got instruction: pc=800000bc instr=1000ffff [0m
# [32m < -- id -- > time=189 got instruction: pc=800000c0 instr=00000000 [0m
# [32m < -- id -- > time=193 got instruction: pc=800000bc instr=1000ffff [0m
# [32m < -- id -- > time=197 got instruction: pc=800000c0 instr=00000000 [0m
#  quit 
