armcpu/simulate/output_expected/mult.s.transcript
# vsim -do {run 150ns; quit} -c top 
# Loading work.top
# Loading work.ram_sim
# Loading work.ram_output_delay
# Loading work.system
# Loading work.cpu
# Loading work.forward
# Loading work.multiplier_wrapper
# Loading work.multiplier
# Loading work.stage_if
# Loading work.stage_id
# Loading work.register_file
# Loading work.stage_ex
# Loading work.alu
# Loading work.stage_mem
# Loading work.cp0
# Loading work.mmu
# Loading work.phy_mem_ctrl
# Loading work.serial_port
# Loading work.uart_async_transmitter
# Loading work.uart_async_receiver
# Loading work.vga
# Loading work.vga_ram
# run 150ns 
# time=0 cp0_cause: IP=xxxxxxxx ExcCode=xx
# time=0 com_write_busy=0
# time=0 com_read_data=00
# time=0 cp0_cause: IP=x00x0000 ExcCode=xx
# time=0 segdisp=xxxxxxxx
# time=2 cp0_cause: IP=x0000000 ExcCode=xx
# time=2 cpu entered kernel mode
# time=2 cp0_cause: IP=x0000000 ExcCode=00
# time=2 cp0_status: IM=00000000 KSU=00 EXL=0 IE=0
# time=2 reg1($at)=00000000
# time=2 reg2($v0)=00000000
# time=2 reg3($v1)=00000000
# time=2 reg4($a0)=00000000
# time=2 reg5($a1)=00000000
# time=2 reg6($a2)=00000000
# time=2 reg7($a3)=00000000
# time=2 reg16($s0)=00000000
# time=2 reg26($k0)=00000000
# time=2 reg26($k1)=00000000
# time=2 reg29($sp)=00000000
# time=2 reg30($fp)=00000000
# time=2 reg31($ra)=00000000
# time=2 cp0_cause: IP=00000000 ExcCode=00
# [32m < -- id -- > time=10 got instruction: pc=7ffffffc instr=00000000 [0m
# time=10 cp0_cause: IP=10000000 ExcCode=00
# [32m < -- id -- > time=14 got instruction: pc=80000000 instr=3c041993 [0m
# [32m < -- id -- > time=18 got instruction: pc=80000004 instr=34840501 [0m
# [32m < -- id -- > time=22 got instruction: pc=80000008 instr=3c051993 [0m
# time=22 reg4($a0)=19930000
# [32m < -- id -- > time=26 got instruction: pc=8000000c instr=34a51102 [0m
# time=26 reg4($a0)=19930501
# [32m < -- id -- > time=30 got instruction: pc=80000010 instr=00850018 [0m
# time=30 reg5($a1)=19930000
# [32m < -- id -- > time=34 got instruction: pc=80000014 instr=00001010 [0m
# time=34 reg5($a1)=19931102
# [32m < -- id -- > time=38 got instruction: pc=80000018 instr=00001812 [0m
# [32m < -- id -- > time=54 got instruction: pc=8000001c instr=00800011 [0m
# time=54 reg2($v0)=028e0c9b
# [32m < -- id -- > time=62 got instruction: pc=80000020 instr=00a00013 [0m
# time=62 reg3($v1)=ef0e1b02
# [32m < -- id -- > time=70 got instruction: pc=80000024 instr=00000000 [0m
# [32m < -- id -- > time=78 got instruction: pc=80000028 instr=00000000 [0m
# [32m < -- id -- > time=82 got instruction: pc=8000002c instr=00000000 [0m
# [32m < -- id -- > time=86 got instruction: pc=80000030 instr=00000000 [0m
# [32m < -- id -- > time=90 got instruction: pc=80000034 instr=00000000 [0m
# [32m < -- id -- > time=94 got instruction: pc=80000038 instr=00000000 [0m
# [32m < -- id -- > time=98 got instruction: pc=8000003c instr=00000000 [0m
# [32m < -- id -- > time=102 got instruction: pc=80000040 instr=00000000 [0m
# [32m < -- id -- > time=106 got instruction: pc=80000044 instr=00000000 [0m
# [32m < -- id -- > time=110 got instruction: pc=80000048 instr=00000000 [0m
# [32m < -- id -- > time=114 got instruction: pc=8000004c instr=00000000 [0m
# [32m < -- id -- > time=118 got instruction: pc=80000050 instr=00001010 [0m
# [32m < -- id -- > time=122 got instruction: pc=80000054 instr=00001812 [0m
# [32m < -- id -- > time=130 got instruction: pc=80000058 instr=1000ffff [0m
# time=130 reg2($v0)=19930501
# [32m < -- id -- > time=138 got instruction: pc=8000005c instr=00000000 [0m
# time=138 reg3($v1)=19931102
# [32m < -- id -- > time=142 got instruction: pc=80000058 instr=1000ffff [0m
# [32m < -- id -- > time=146 got instruction: pc=8000005c instr=00000000 [0m
# [32m < -- id -- > time=150 got instruction: pc=80000058 instr=1000ffff [0m
#  quit 
