armcpu/simulate/prog/basic_mem.transcript
# vsim -do {run 200ns; quit} -c top 
# Loading work.top
# Loading work.ram_sim
# Loading work.system
# Loading work.cpu
# Loading work.forward
# Loading work.stage_if
# Loading work.stage_id
# Loading work.register_file
# Loading work.stage_ex
# Loading work.alu
# Loading work.stage_mem
# Loading work.mmu
# Loading work.phy_mem_ctrl
# run 200ns 
# initial mem dump: 00000000: 24040100
# initial mem dump: 00000001: 3c051993
# initial mem dump: 00000002: 34a51102
# initial mem dump: 00000003: ac850000
# initial mem dump: 00000004: 8c860000
# initial mem dump: 00000005: 00801821
# initial mem dump: 00000006: 8c640000
# initial mem dump: 00000007: 00603021
# initial mem dump: 00000008: 0800000b
# initial mem dump: 00000009: 8cc60000
# initial mem dump: 0000000a: 24060000
# initial mem dump: 0000000b: 8c670000
# initial mem dump: 0000000c: 8c630000
# initial mem dump: 0000000d: 00673021
# initial mem dump: 0000000e: 24040100
# initial mem dump: 0000000f: 24050200
# initial mem dump: 00000010: aca40000
# initial mem dump: 00000011: 8ca50000
# initial mem dump: 00000012: 8ca50000
# initial mem dump: 00000013: 00a01021
# initial mem dump: 00000014: 08000014
# initial mem dump: 00000015: 00000000
# time=0 debug_out=xxxxxxxx
# time=1 reg1($at)=00000000
# time=1 reg2($v0)=00000000
# time=1 reg3($v1)=00000000
# time=1 reg4($a0)=00000000
# time=1 reg5($a1)=00000000
# time=1 reg6($a2)=00000000
# time=1 reg7($a3)=00000000
# time=1 reg31($ra)=00000000
# time=1 debug_out=00000000
# [32m < -- id -- > time=9 got instruction: pc=xxxxxxxx instr=00000000 [0m
# [32m < -- id -- > time=13 got instruction: pc=00000000 instr=24040100 [0m
# [32m < -- id -- > time=17 got instruction: pc=00000004 instr=3c051993 [0m
# [32m < -- id -- > time=21 got instruction: pc=00000008 instr=34a51102 [0m
# time=21 reg4($a0)=00000100
# [32m < -- id -- > time=25 got instruction: pc=0000000c instr=ac850000 [0m
# time=25 reg5($a1)=19930000
# [32m < -- id -- > time=29 got instruction: pc=00000010 instr=8c860000 [0m
# time=29 reg5($a1)=19931102
# [31m <-- mem --> time=36 write: addr=00040 data=19931102[0m
# [32m < -- id -- > time=49 got instruction: pc=00000014 instr=00801821 [0m
# time=57 reg6($a2)=19931102
# [32m < -- id -- > time=61 got instruction: pc=00000018 instr=8c640000 [0m
# [32m < -- id -- > time=65 got instruction: pc=0000001c instr=00603021 [0m
# time=65 reg3($v1)=00000100
# time=73 reg4($a0)=19931102
# [32m < -- id -- > time=77 got instruction: pc=00000020 instr=0800000b [0m
# [32m < -- id -- > time=81 got instruction: pc=00000024 instr=8cc60000 [0m
# time=81 reg6($a2)=00000100
# [32m < -- id -- > time=85 got instruction: pc=0000002c instr=8c670000 [0m
# time=93 reg6($a2)=19931102
# [32m < -- id -- > time=97 got instruction: pc=00000030 instr=8c630000 [0m
# time=105 reg7($a3)=19931102
# time=105 debug_out=19931102
# [32m < -- id -- > time=109 got instruction: pc=00000034 instr=00673021 [0m
# time=117 reg3($v1)=19931102
# [32m < -- id -- > time=121 got instruction: pc=00000038 instr=24040100 [0m
# [32m < -- id -- > time=125 got instruction: pc=0000003c instr=24050200 [0m
# time=125 reg6($a2)=33262204
# [32m < -- id -- > time=129 got instruction: pc=00000040 instr=aca40000 [0m
# time=129 reg4($a0)=00000100
# [32m < -- id -- > time=133 got instruction: pc=00000044 instr=8ca50000 [0m
# time=133 reg5($a1)=00000200
# [31m <-- mem --> time=140 write: addr=00080 data=00000100[0m
# [32m < -- id -- > time=153 got instruction: pc=00000048 instr=8ca50000 [0m
# time=161 reg5($a1)=00000100
# [32m < -- id -- > time=165 got instruction: pc=0000004c instr=00a01021 [0m
# time=173 reg5($a1)=19931102
# [32m < -- id -- > time=177 got instruction: pc=00000050 instr=08000014 [0m
# [32m < -- id -- > time=181 got instruction: pc=00000054 instr=00000000 [0m
# time=181 reg2($v0)=19931102
# [32m < -- id -- > time=185 got instruction: pc=00000050 instr=08000014 [0m
# [32m < -- id -- > time=189 got instruction: pc=00000054 instr=00000000 [0m
# [32m < -- id -- > time=193 got instruction: pc=00000050 instr=08000014 [0m
# [32m < -- id -- > time=197 got instruction: pc=00000054 instr=00000000 [0m
#  quit 
